Calculating Gompertz model parameters — calc_gompertz_parameters • R4GoodPersonalFinances
…
mortality_rates <- 
  dplyr::filter(
    life_tables,
    country == "USA" & 
    sex     == "male" &
    year    == 2022
  )
  
calc_gompertz_parameters(
  mortality_rates = mortality_rates,
  current_age     = 65
)
#> $data
#> # A tibble: 46 × 8
#>    country sex    year   age mortality_rate life_expectancy survival_rate
#>    <chr>   <chr> <int> <int>          <dbl>           <dbl>         <dbl>
#>  1 USA     male   2022    65         0.0178            17.7         1    
#>  2 USA     male   2022    66         0.0187            17.0         0.981
#>  3 USA     male   2022    67         0.0200            16.3         0.962
#>  4 USA     male   2022    68         0.0214            15.6         0.941
#>  5 USA     male   2022    69         0.0228            14.9         0.920
#>  6 USA     male   2022    70         0.0246            14.3         0.897
#>  7 USA     male   2022    71         0.0264            13.6         0.873
#>  8 USA     male   2022    72         0.0282            13.0         0.849
#>  9 USA     male   2022    73         0.0306            12.3         0.823
#> 10 USA     male   2022    74         0.0331            11.7         0.796
#> # ℹ 36 more rows
#> # ℹ 1 more variable: probability_of_death <dbl>
…
